…
``` r
# install.packages("devtools")
devtools::install_github("cidacsdict")
```

Usage
-----

A [data dictionary provided by CIDACS](https://gcgh.grandchallenges.org/sites/default/files/additional-materials/CIDACS%20Dicionario%20Dados%20Coorte%20100M.PDF) is available in this package as a dataset, `cdcs_dict`.

``` r
cdcs_dict
#> # A tibble: 209 x 17
#>       id db_name db_name_en name  name_en label label_en label_google_en
#>    <dbl> <chr>   <chr>      <chr> <chr>   <chr> <chr>    <chr>          
#>  1     1 Cadast… Single Re… cod_… househ… Códi… Househo… Code of the pl…
#>  2     2 Cadast… Single Re… cod_… househ… Códi… Househo… Code of the fa…
#>  3     3 Cadast… Single Re… cod_… househ… Códi… Househo… Household mate…
#>  4     4 Cadast… Single Re… cod_… househ… Códi… Househo… Code of househ…
#>  5     5 Cadast… Single Re… cod_… househ… Códi… Househo… Household sani…
#>  6     6 Cadast… Single Re… cod_… househ… Códi… Househo… Code of househ…
#>  7     7 Cadast… Single Re… cod_… househ… Códi… Househo… Code of illumi…
#>  8     8 Cadast… Single Re… cod_… sex     Códi… Code in… Code that indi…
#>  9     9 Cadast… Single Re… cod_… kinship Códi… Code fo… Code of kinshi…
#> 10    10 Cadast… Single Re… cod_… race    Códi… Person’… Code of the pe…
#> # ... with 199 more rows, and 9 more variables: map <list>, map_en <list>,
#> #   type <chr>, presence <chr>, presence_en <chr>, comments_en <chr>,
#> #   db <chr>, map_en_orig <chr>, map_orig <chr>
```
…
